{
	"info": {
		"_postman_id": "685e1431-4b26-4cfc-a0ab-0a33a4991b18",
		"name": "drools-spring-lab",
		"schema": "https://schema.getpostman.com/json/collection/v2.1.0/collection.json"
	},
	"item": [
		{
			"name": "1000",
			"event": [
				{
					"listen": "test",
					"script": {
						"exec": [
							"var response = pm.response.json();",
							"",
							"pm.test((\"Test for valid score\"), () => {",
							"    pm.expect(response.orderPoints).to.equal(1000);",
							"});"
						],
						"type": "text/javascript"
					}
				}
			],
			"request": {
				"method": "POST",
				"header": [],
				"body": {
					"mode": "raw",
					"raw": "{\n    \"purchaseDate\":\"2023-03-04\",\n    \"amount\":\"10000\",\n    \"user\":\"nazarenko\"\n}",
					"options": {
						"raw": {
							"language": "json"
						}
					}
				},
				"url": {
					"raw": "{{HOST}}:{{PORT}}/api/loyalti/order/submit",
					"host": [
						"{{HOST}}"
					],
					"port": "{{PORT}}",
					"path": [
						"api",
						"loyalti",
						"order",
						"submit"
					]
				}
			},
			"response": []
		},
		{
			"name": "99",
			"event": [
				{
					"listen": "test",
					"script": {
						"exec": [
							"var response = pm.response.json();",
							"",
							"pm.test((\"Test for valid score\"), () => {",
							"    pm.expect(response.orderPoints).to.equal(0);",
							"});"
						],
						"type": "text/javascript"
					}
				}
			],
			"request": {
				"method": "POST",
				"header": [],
				"body": {
					"mode": "raw",
					"raw": "{\n    \"purchaseDate\":\"2023-03-04\",\n    \"amount\":\"99\",\n    \"user\":\"nazarenko\"\n}",
					"options": {
						"raw": {
							"language": "json"
						}
					}
				},
				"url": {
					"raw": "{{HOST}}:{{PORT}}/api/loyalti/order/submit",
					"host": [
						"{{HOST}}"
					],
					"port": "{{PORT}}",
					"path": [
						"api",
						"loyalti",
						"order",
						"submit"
					]
				}
			},
			"response": []
		},
		{
			"name": "155",
			"event": [
				{
					"listen": "test",
					"script": {
						"exec": [
							"var response = pm.response.json();",
							"",
							"pm.test((\"Test for valid score\"), () => {",
							"    pm.expect(response.orderPoints).to.equal(100);",
							"});"
						],
						"type": "text/javascript"
					}
				}
			],
			"request": {
				"method": "POST",
				"header": [],
				"body": {
					"mode": "raw",
					"raw": "{\n    \"purchaseDate\":\"2023-03-04\",\n    \"amount\":\"155\",\n    \"user\":\"nazarenko\"\n}",
					"options": {
						"raw": {
							"language": "json"
						}
					}
				},
				"url": {
					"raw": "{{HOST}}:{{PORT}}/api/loyalti/order/submit",
					"host": [
						"{{HOST}}"
					],
					"port": "{{PORT}}",
					"path": [
						"api",
						"loyalti",
						"order",
						"submit"
					]
				}
			},
			"response": []
		},
		{
			"name": "600",
			"event": [
				{
					"listen": "test",
					"script": {
						"exec": [
							"var response = pm.response.json();",
							"",
							"pm.test((\"Test for valid score\"), () => {",
							"    pm.expect(response.orderPoints).to.equal(500);",
							"});"
						],
						"type": "text/javascript"
					}
				}
			],
			"request": {
				"method": "POST",
				"header": [],
				"body": {
					"mode": "raw",
					"raw": "{\n    \"purchaseDate\":\"2023-03-04\",\n    \"amount\":\"600\",\n    \"user\":\"nazarenko\"\n}",
					"options": {
						"raw": {
							"language": "json"
						}
					}
				},
				"url": {
					"raw": "{{HOST}}:{{PORT}}/api/loyalti/order/submit",
					"host": [
						"{{HOST}}"
					],
					"port": "{{PORT}}",
					"path": [
						"api",
						"loyalti",
						"order",
						"submit"
					]
				}
			},
			"response": []
		}
	],
	"event": [
		{
			"listen": "prerequest",
			"script": {
				"type": "text/javascript",
				"exec": [
					""
				]
			}
		},
		{
			"listen": "test",
			"script": {
				"type": "text/javascript",
				"exec": [
					""
				]
			}
		}
	],
	"variable": [
		{
			"key": "HOST",
			"value": "localhost",
			"type": "default"
		},
		{
			"key": "PORT",
			"value": "8081",
			"type": "default"
		}
	]
}